{
  "expo": {
    "name": "Brownie",
    "sdkVersion": "24.0.0",
    "icon": "./assets/icon.png",
    "splash": {
      "image": "./assets/splash.png",
      "resizeMode": "cover"
    },
    "android": {
      "package": "com.nanosoft.brownie"
    },
    "ios": {
      "bundleIdentifier": "com.nanosoft.brownie"
    }
  }
}