{
  "name": "brownie",
  "version": "0.1.0",
  "private": true,
  "devDependencies": {
    "jest-expo": "^23.0.0",
    "react-native-scripts": "1.7.0",
    "react-test-renderer": "16.0.0-beta.5"
  },
  "main": "./node_modules/react-native-scripts/build/bin/crna-entry.js",
  "scripts": {
    "start": "react-native-scripts start",
    "eject": "react-native-scripts eject",
    "android": "react-native-scripts android",
    "ios": "react-native-scripts ios",
    "test": "node node_modules/jest/bin/jest.js --watch"
  },
  "jest": {
    "preset": "jest-expo"
  },
  "dependencies": {
    "expo": "^23.0.5",
    "native-base": "^2.3.3",
    "react": "16.0.0",
    "react-native": "0.50.3",
    "react-native-radio-buttons": "^1.0.0",
    "react-native-root-toast": "^2.2.0",
    "react-native-star-rating": "^1.0.8",
    "react-navigation": "^1.0.0-beta.20",
    "react-redux": "^5.0.6",
    "redux": "^3.7.2",
    "validate": "^3.0.1"
  }
}
